{
  "0": {
    "title": "Win your family tickets!",
    "subtitle": "",
    "description": "You could be in a chance to win x2 addult and x2 children tickets to the Man City match",
    "content": "<p>Lorem ipsum dolor sit amet, consectetur adipiscing elit. Faucibus turpis fermentum, elementum massa sed sed donec vitae. </p> <h2>Images:</h2> <div class='box-images'> <img src='https://media.bongda.com.vn/files/huy.phandang/2020/04/21/2861-0649.jpeg' /> <img src='https://media.bongda.com.vn/files/huy.phandang/2020/04/21/2861-0649.jpeg' /> <img src='https://media.bongda.com.vn/files/huy.phandang/2020/04/21/2861-0649.jpeg' /> <img src='https://media.bongda.com.vn/files/huy.phandang/2020/04/21/2861-0649.jpeg' /> </div> <h2>Videos:</h2> <div class='box-videos'><iframe src='https://www.youtube.com/embed/XVqxFSkCXHM' frameborder='0' allow='accelerometer; autoplay; encrypted-media; gyroscope; picture-in-picture' allowfullscreen></iframe> <iframe src='https://www.youtube.com/embed/XVqxFSkCXHM' frameborder='0' allow='accelerometer; autoplay; encrypted-media; gyroscope; picture-in-picture' allowfullscreen></iframe> </div> <p>Nunc, dui dui, elit imperdiet elementum vestibulum, id. Ultricies vulputate adipiscing condimentum pellentesque. Enim nisl nibh magna in. </p>",
    "start_date": "06:00:00 2020-07-20",
    "close_date": "06:00:00 2020-07-30",
    "draw_date": "06:00:00 2020-08-01",
    "feature_image": "https://cdnmedia.webthethao.vn/uploads/img/files/images/fullsize/2020/02/09/BDQT/Liverpool.jpg",
    "thumbnail_image": "https://cdnmedia.webthethao.vn/uploads/img/files/images/fullsize/2020/02/09/BDQT/Liverpool.jpg",
    "category": "Premiere League",
    "status": "open",
    "prize_list": [1,2,3],
    "quiz_id": [1]
  }
}